\begin{tabular}{lrrrrrr}
\toprule
     Filters &  Gal 68\% &  Gal 95\% &  Gal mean &  Star 68\% &  Star 95\% &  Star mean \\
\midrule
       r,i,z &  4.9e-04 &  7.8e-04 &   3.9e-04 &   2.8e-04 &   3.9e-04 &    2.4e-04 \\
         r,i &  4.2e-04 &  8.2e-04 &   3.4e-04 &   1.7e-03 &   1.8e-03 &    1.6e-03 \\
         i,z &  7.5e-04 &  1.2e-03 &   5.8e-04 &   3.2e-03 &   3.4e-03 &    3.2e-03 \\
   vis,r,i,z &  5.0e-04 &  7.8e-04 &   4.0e-04 &   2.6e-04 &   3.7e-04 &    2.3e-04 \\
     vis,r,i &  3.6e-04 &  6.8e-04 &   2.9e-04 &   1.4e-03 &   1.5e-03 &    1.3e-03 \\
     vis,i,z &  6.9e-04 &  1.0e-03 &   5.7e-04 &   2.8e-03 &   2.8e-03 &    2.7e-03 \\
         All &  3.5e-04 &  5.2e-04 &   2.7e-04 &   3.4e-04 &   4.8e-04 &    2.9e-04 \\
   All - vis &  5.1e-04 &  7.0e-04 &   4.3e-04 &   7.9e-04 &   9.4e-04 &    7.3e-04 \\
     All - r &  5.6e-04 &  7.8e-04 &   4.7e-04 &   3.6e-04 &   5.5e-04 &    2.9e-04 \\
     All - z &  5.3e-04 &  7.1e-04 &   4.4e-04 &   1.6e-04 &   3.2e-04 &    1.3e-04 \\
 All - vis,z &  5.3e-04 &  7.5e-04 &   4.4e-04 &   1.9e-04 &   3.4e-04 &    1.5e-04 \\
\bottomrule
\end{tabular}
