\begin{tabular}{lrrrrrr}
\toprule
     Filters &  Gal 68\% &  Gal 95\% &  Gal mean &  Star 68\% &  Star 95\% &  Star mean \\
\midrule
       r,i,z &  6.5e-04 &  7.2e-04 &   6.2e-04 &   2.7e-04 &   3.5e-04 &    2.4e-04 \\
         r,i &  3.6e-04 &  5.4e-04 &   2.9e-04 &   1.7e-03 &   1.8e-03 &    1.7e-03 \\
         i,z &  1.8e-03 &  2.0e-03 &   1.7e-03 &   3.2e-03 &   3.4e-03 &    3.2e-03 \\
   vis,r,i,z &  6.1e-04 &  6.9e-04 &   5.8e-04 &   2.2e-04 &   3.0e-04 &    2.0e-04 \\
     vis,r,i &  5.4e-04 &  6.2e-04 &   5.1e-04 &   1.4e-03 &   1.5e-03 &    1.3e-03 \\
     vis,i,z &  4.6e-04 &  5.4e-04 &   4.3e-04 &   2.8e-03 &   2.9e-03 &    2.8e-03 \\
         All &  3.9e-04 &  4.6e-04 &   3.4e-04 &   3.7e-04 &   5.4e-04 &    3.3e-04 \\
   All - vis &  4.1e-04 &  5.1e-04 &   3.6e-04 &   7.7e-04 &   8.9e-04 &    7.0e-04 \\
     All - r &  7.3e-04 &  8.6e-04 &   6.9e-04 &   3.5e-04 &   4.7e-04 &    2.7e-04 \\
     All - z &  4.5e-04 &  5.2e-04 &   4.0e-04 &   1.8e-04 &   3.7e-04 &    1.4e-04 \\
 All - vis,z &  3.6e-04 &  4.6e-04 &   3.3e-04 &   1.8e-04 &   3.6e-04 &    1.4e-04 \\
\bottomrule
\end{tabular}
